<svg width="155" height="166" viewBox="0 0 155 166" fill="none" xmlns="http://www.w3.org/2000/svg">
<path d="M114.334 152.88C114.334 152.824 114.314 152.77 114.301 152.717" stroke="#313131" stroke-width="1.5" stroke-linecap="round" stroke-linejoin="round"/>
<path d="M122.889 85.3141C122.839 85.0365 122.793 84.7159 122.75 84.3557" stroke="#313131" stroke-width="1.5" stroke-linecap="round" stroke-linejoin="round"/>
<path d="M123.295 73.5152C123.399 73.1117 123.54 72.7189 123.718 72.3419C123.761 72.2532 123.809 72.1671 123.863 72.0842" stroke="#313131" stroke-width="1.5" stroke-linecap="round" stroke-linejoin="round"/>
<path d="M151.696 145.756C148.486 146.638 145.2 147.077 141.953 147.705C133.976 149.278 125.97 150.738 117.983 152.268C116.755 152.499 115.559 152.731 114.35 152.879C113.447 152.995 112.536 153.05 111.625 153.044C92.5378 152.849 61.8107 152.813 39.0272 152.939C37.2998 152.678 34.991 152.628 34.2875 152.516L21.3632 150.444L11.7253 148.898C8.96074 148.455 5.64461 148.396 3.00888 147.474C2.59409 147.354 2.2255 147.111 1.95195 146.777C1.72975 146.415 1.61517 145.998 1.62166 145.574C1.54899 144.067 1.95195 142.101 3.29293 141.196C4.04589 140.749 4.89075 140.479 5.76352 140.406C6.93275 140.251 8.11519 140.218 9.29103 140.152C14.1827 139.881 19.0875 139.874 23.989 139.868L148.998 139.66C150.824 139.66 152.866 140.172 153.477 142.032C153.956 143.519 153.269 145.326 151.696 145.756Z" stroke="#313131" stroke-width="1.5" stroke-linecap="round" stroke-linejoin="round"/>
<path d="M111.278 164.166H108.847C87.7262 164.219 66.6041 164.274 45.4808 164.331C45.1396 164.349 44.7976 164.314 44.4668 164.228C44.1903 164.131 43.9315 163.989 43.7005 163.809C42.1582 162.682 41.0968 161.015 40.7279 159.14C40.3926 157.322 40.5488 155.446 41.1804 153.708C41.1055 153.668 41.0283 153.633 40.9492 153.603C40.6949 153.299 39.9319 153.097 39.0071 152.942C61.7972 152.816 92.5143 152.852 111.605 153.047C112.516 153.053 113.427 152.998 114.33 152.882C114.414 153.567 114.437 154.258 114.399 154.947C114.436 158.36 115.433 162.173 111.278 164.166Z" stroke="#313131" stroke-width="1.5" stroke-linecap="round" stroke-linejoin="round"/>
<path d="M146.045 111.747C139.109 117.892 127.489 119.452 119.057 115.576C119.477 114.714 119.86 113.828 120.207 112.933C121.17 110.365 121.879 107.709 122.324 105.003C127.278 107.897 135.142 106.986 139.136 102.852C143.129 98.7187 143.852 91.6777 140.695 86.8141C137.537 81.9505 130.858 79.7137 125.405 81.706C124.563 82.0133 123.718 82.4395 123.212 83.1796C122.985 83.5373 122.832 83.9375 122.763 84.3559C122.453 81.5276 122.515 76.403 123.308 73.5152C123.512 73.5083 123.707 73.43 123.86 73.2938C123.995 73.1154 123.965 72.633 123.876 72.0845C125.333 69.7122 129.735 69.5734 132.133 69.7717C141.451 70.5481 150.002 77.2753 152.942 86.1533C155.881 95.0314 153.047 105.542 146.045 111.747Z" stroke="#313131" stroke-width="1.5" stroke-linecap="round" stroke-linejoin="round"/>
<path d="M122.74 86.7677C123.275 92.6721 123.348 98.9928 122.324 104.996L122.165 104.904C121.064 108.428 119.953 111.953 118.833 115.477L119.057 115.579C116.256 121.365 111.896 126.298 107.332 130.778C97.8458 140.082 86.933 138.936 73.675 139.187C69.2392 139.27 64.734 139.455 60.3577 138.738C55.4363 137.931 50.984 135.291 47.146 132.129C41.2536 127.276 36.4611 120.978 33.9145 113.802C30.8791 105.3 31.0641 96.0324 31.2722 87.0089L31.6025 72.8212L43.2188 72.8873L69.1434 73.0591L98.4337 73.2508L119.698 73.3928C120.236 73.3928 122.261 73.6704 123.282 73.5151C122.502 76.3929 122.433 81.5275 122.763 84.3558C122.646 85.155 122.638 85.9664 122.74 86.7677Z" fill="#8E70FE" fill-opacity="0.45" stroke="#313131" stroke-width="1.5" stroke-linecap="round" stroke-linejoin="round"/>
<path d="M123.846 73.2938C123.694 73.43 123.498 73.5083 123.294 73.5152C122.274 73.6705 120.249 73.3963 119.711 73.393L98.4465 73.2509L69.1562 73.0593L43.2316 72.8874L31.6152 72.8214C31.6637 70.8565 31.7121 68.8928 31.7606 66.9302C31.7903 65.7804 31.8563 64.5314 32.616 63.6724C33.5375 62.6382 35.0998 62.5655 36.4837 62.5655L116.414 62.7208C118.115 62.7208 119.955 62.7703 121.303 63.8078C123.199 65.2715 123.225 67.8355 123.456 70.0063C123.492 70.3631 123.737 71.2949 123.862 72.0846C123.952 72.633 123.981 73.1154 123.846 73.2938Z" stroke="#313131" stroke-width="1.5" stroke-linecap="round" stroke-linejoin="round"/>
<path d="M93.0065 25.6754C99.7675 29.8286 101.293 38.7661 98.0269 44.5384C97.1087 46.154 96.2334 47.8424 94.648 48.8337C93.1947 49.7258 92.7488 50.8161 92.9966 52.3822" stroke="#313131" stroke-width="1.5" stroke-linecap="round" stroke-linejoin="round"/>
<path d="M55.6438 25.5101C58.4876 26.3626 59.9772 28.6655 61.2918 31.0279C64.6409 37.0546 63.0456 45.252 57.3283 49.3755C56.9782 49.6266 56.6677 49.9273 56.3374 50.2048" stroke="#313131" stroke-width="1.5" stroke-linecap="round" stroke-linejoin="round"/>
<path d="M74.6587 50.218C75.0778 50.245 75.4937 50.1285 75.8378 49.8876C80.8484 46.349 83.0019 40.3917 81.6345 34.3585C81.0069 31.5797 79.4743 29.2504 77.5322 27.1424L76.3366 25.4903C76.8836 24.3815 77.6164 23.3746 78.5033 22.5133C83.7681 16.9592 83.2397 6.65376 76.4786 1.6646" stroke="#313131" stroke-width="1.5" stroke-linecap="round" stroke-linejoin="round"/>
</svg>
